broom: tidy model information • mariatidymodels
…
Now, we can map this function to the bootstraps and map tidy, glance and augment to get a tidy coefficients information.

regressions <-  boots %>% 
  mutate(model = map(splits, fit_nls_on_bootstrap),
         tidied = map(model, tidy),
         glanced = map(model, glance),
         augmented = map(model, augment)
         )

If we inspect regressions we can see that tidied, glanced and augmented column contain nested lists with 5, 4 and 9 variables each respectively.

regressions
#> # Bootstrap sampling with apparent sample 
#> # A tibble: 2,001 x 6
#>    splits        id           model  tidied        glanced       augmented      
#>    <list>        <chr>        <list> <list>        <list>        <list>         
#>  1 <split [32/1… Bootstrap00… <nls>  <tibble [2 ×… <tibble [1 ×… <tibble [32 × …
#>  2 <split [32/1… Bootstrap00… <nls>  <tibble [2 ×… <tibble [1 ×… <tibble [32 × …
#>  3 <split [32/1… Bootstrap00… <nls>  <tibble [2 ×… <tibble [1 ×… <tibble [32 × …
#>  4 <split [32/1… Bootstrap00… <nls>  <tibble [2 ×… <tibble [1 ×… <tibble [32 × …
#>  5 <split [32/9… Bootstrap00… <nls>  <tibble [2 ×… <tibble [1 ×… <tibble [32 × …
#>  6 <split [32/1… Bootstrap00… <nls>  <tibble [2 ×… <tibble [1 ×… <tibble [32 × …
#>  7 <split [32/1… Bootstrap00… <nls>  <tibble [2 ×… <tibble [1 ×… <tibble [32 × …
#>  8 <split [32/1… Bootstrap00… <nls>  <tibble [2 ×… <tibble [1 ×… <tibble [32 × …
#>  9 <split [32/1… Bootstrap00… <nls>  <tibble [2 ×… <tibble [1 ×… <tibble [32 × …
#> 10 <split [32/1… Bootstrap00… <nls>  <tibble [2 ×… <tibble [1 ×… <tibble [32 × …
#> # … with 1,991 more rows
…
