rsample: create resamples • mariatidymodels
…
analysis(rs_obj$splits[[1]]) %>% class()
#> [1] "data.frame"

analysis(rs_obj$splits[[1]]) %>% dim()
#> [1] 1323   31

assessment(rs_obj$splits[[1]]) %>% dim()
#> [1] 147  31

# We can also incorporate the analysis and assesment into vfold_cv data list
rs_obj %>% 
  mutate(df_ana = map(splits, analysis),
         df_ass = map(splits, assessment))
#> #  10-fold cross-validation repeated 10 times 
#> # A tibble: 100 x 5
#>    splits             id       id2    df_ana                 df_ass             
#>    <list>             <chr>    <chr>  <list>                 <list>             
#>  1 <split [1.3K/147]> Repeat01 Fold01 <df[,31] [1,323 × 31]> <df[,31] [147 × 31…
#>  2 <split [1.3K/147]> Repeat01 Fold02 <df[,31] [1,323 × 31]> <df[,31] [147 × 31…
#>  3 <split [1.3K/147]> Repeat01 Fold03 <df[,31] [1,323 × 31]> <df[,31] [147 × 31…
#>  4 <split [1.3K/147]> Repeat01 Fold04 <df[,31] [1,323 × 31]> <df[,31] [147 × 31…
#>  5 <split [1.3K/147]> Repeat01 Fold05 <df[,31] [1,323 × 31]> <df[,31] [147 × 31…
#>  6 <split [1.3K/147]> Repeat01 Fold06 <df[,31] [1,323 × 31]> <df[,31] [147 × 31…
#>  7 <split [1.3K/147]> Repeat01 Fold07 <df[,31] [1,323 × 31]> <df[,31] [147 × 31…
#>  8 <split [1.3K/147]> Repeat01 Fold08 <df[,31] [1,323 × 31]> <df[,31] [147 × 31…
#>  9 <split [1.3K/147]> Repeat01 Fold09 <df[,31] [1,323 × 31]> <df[,31] [147 × 31…
#> 10 <split [1.3K/147]> Repeat01 Fold10 <df[,31] [1,323 × 31]> <df[,31] [147 × 31…
#> # … with 90 more rows
…
This function is going to take our resample data rs_obj and a formula that specifies a logistic regression model to the data. For example we can model attrition with job satisfaction, gender, and monthly income.

mod_form <- as.formula(Attrition ~ JobSatisfaction + Gender + MonthlyIncome)

rs_obj$results <- map(rs_obj$splits,
                      holdout_results,
                      mod_form)

rs_obj
#> #  10-fold cross-validation repeated 10 times 
#> # A tibble: 100 x 4
#>    splits             id       id2    results            
#>    <list>             <chr>    <chr>  <list>             
#>  1 <split [1.3K/147]> Repeat01 Fold01 <tibble [147 × 34]>
#>  2 <split [1.3K/147]> Repeat01 Fold02 <tibble [147 × 34]>
#>  3 <split [1.3K/147]> Repeat01 Fold03 <tibble [147 × 34]>
#>  4 <split [1.3K/147]> Repeat01 Fold04 <tibble [147 × 34]>
#>  5 <split [1.3K/147]> Repeat01 Fold05 <tibble [147 × 34]>
#>  6 <split [1.3K/147]> Repeat01 Fold06 <tibble [147 × 34]>
#>  7 <split [1.3K/147]> Repeat01 Fold07 <tibble [147 × 34]>
#>  8 <split [1.3K/147]> Repeat01 Fold08 <tibble [147 × 34]>
#>  9 <split [1.3K/147]> Repeat01 Fold09 <tibble [147 × 34]>
#> 10 <split [1.3K/147]> Repeat01 Fold10 <tibble [147 × 34]>
#> # … with 90 more rows
…
