Tune: tuning hyperparameters • mariatidymodels
…
Last fit

Train model on train set and evaluate on test set

pricing_model_fit <- last_fit(pricing_model, data_split)

Collect predictons

We can obtain the results produced by tuning functions

pricing_model_fit %>% 
    collect_predictions() 
#> # A tibble: 585 x 5
#>    id                 .pred  .row Sale_Price .config             
#>    <chr>              <dbl> <int>      <int> <chr>               
#>  1 train/test split 218692.     1     215000 Preprocessor1_Model1
#>  2 train/test split 186605.     5     189900 Preprocessor1_Model1
#>  3 train/test split 192488.     8     191500 Preprocessor1_Model1
#>  4 train/test split 174406.    11     175900 Preprocessor1_Model1
#>  5 train/test split 203347.    14     171500 Preprocessor1_Model1
#>  6 train/test split 208288.    17     164000 Preprocessor1_Model1
#>  7 train/test split 201284.    21     190000 Preprocessor1_Model1
#>  8 train/test split 160788.    24     149000 Preprocessor1_Model1
#>  9 train/test split 171758.    29     184000 Preprocessor1_Model1
#> 10 train/test split  91913.    30      96000 Preprocessor1_Model1
#> # … with 575 more rows
…
